/home/bas200175/Documents/katabookDataBaseImplementation/src/main/java/khatabookDatabaseImplementation/Customer.java
/home/bas200175/Documents/katabookDataBaseImplementation/src/main/java/khatabookDatabaseImplementation/CreateOrderMenu.java
/home/bas200175/Documents/katabookDataBaseImplementation/src/main/java/khatabookDatabaseImplementation/LineItems.java
/home/bas200175/Documents/katabookDataBaseImplementation/src/main/java/khatabookDatabaseImplementation/UpdateCustomerBalance.java
/home/bas200175/Documents/katabookDataBaseImplementation/src/main/java/khatabookDatabaseImplementation/Orders.java
/home/bas200175/Documents/katabookDataBaseImplementation/src/main/java/khatabookDatabaseImplementation/KhataBook.java
/home/bas200175/Documents/katabookDataBaseImplementation/src/main/java/khatabookDatabaseImplementation/Product.java
/home/bas200175/Documents/katabookDataBaseImplementation/src/main/java/khatabookDatabaseImplementation/UpdateOrderTotal.java
/home/bas200175/Documents/katabookDataBaseImplementation/src/main/java/khatabookDatabaseImplementation/DatabaseConnection1.java
/home/bas200175/Documents/katabookDataBaseImplementation/src/main/java/khatabookDatabaseImplementation/Employee.java
/home/bas200175/Documents/katabookDataBaseImplementation/src/main/java/khatabookDatabaseImplementation/Payment.java
/home/bas200175/Documents/katabookDataBaseImplementation/src/main/java/khatabookDatabaseImplementation/CreateOrderId.java
/home/bas200175/Documents/katabookDataBaseImplementation/src/main/java/khatabookDatabaseImplementation/CheckOrderTable.java
